Bitcoin Momentum Feature Based Forecasting
…
xgb_params <- grid_max_entropy(trees(), size = 10)

xgb_model_trained <- tune_grid(
  xgb_wflw, 
  grid = xgb_params,
  metrics = metric_set(accuracy, roc_auc, mn_log_loss),
  resamples = resamples_cv,
  control = control_resamples(verbose = FALSE,
                              save_pred = TRUE,
                              allow_par = TRUE))

xgb_model_trained %>% collect_metrics()

# # A tibble: 30 x 7
#    trees .metric     .estimator  mean     n  std_err .config
#    <int> <chr>       <chr>      <dbl> <int>    <dbl> <chr>  
#  1     7 accuracy    binary     0.508    27 0.0118   Model01
#  2     7 mn_log_loss binary     0.693    27 0.000474 Model01
#  3     7 roc_auc     binary     0.496    27 0.00843  Model01
#  4   210 accuracy    binary     0.530    27 0.0132   Model02
#  5   210 mn_log_loss binary     0.691    27 0.00384  Model02
#  6   210 roc_auc     binary     0.508    27 0.0111   Model02
#  7   419 accuracy    binary     0.533    27 0.0131   Model03
#  8   419 mn_log_loss binary     0.691    27 0.00387  Model03
#  9   419 roc_auc     binary     0.509    27 0.0111   Model03
# 10   640 accuracy    binary     0.533    27 0.0131   Model04
# # ... with 20 more rows
…
7.2.10 Annualised Sortino Ratio

mean(signal$close_change_1d * signal$signal) / 
  sd(down$close_change_1d * down$signal) * 365^0.5

# [1] 1.174127

7.3 Most Recent Predictions

signal %>% 
  select(date, close, future_return_pred) %>%
  tail(n = 30)

# # A tibble: 30 x 3
#    date        close future_return_pred
#    <date>      <dbl>              <dbl>
#  1 2020-10-11 11373.              0.509
#  2 2020-10-12 11536.              0.509
#  3 2020-10-13 11428.              0.512
#  4 2020-10-14 11429.              0.512
#  5 2020-10-15 11511.              0.562
#  6 2020-10-16 11322.              0.512
#  7 2020-10-17 11366.              0.562
#  8 2020-10-18 11520.              0.562
#  9 2020-10-19 11764.              0.560
# 10 2020-10-20 11921.              0.560
# # ... with 20 more rows
…
