Modelling with TidyModels
…
8. Tuning

We perform hyperparamter tuning for the tree_depth and min_n parameters to explore different XGBoost models to come up with one that gives the most accurate predictions after cross-validation.

8.1 Create grid for tuning.

# Create grid. Create 5^2 = 25 models.
rf_grid <- grid_regular(tree_depth(),
                         min_n(),
                         levels = 5)
rf_grid

# # A tibble: 25 x 2
#    tree_depth min_n
#         <int> <int>
#  1          1     2
#  2          4     2
#  3          8     2
#  4         11     2
#  5         15     2
#  6          1    11
#  7          4    11
#  8          8    11
#  9         11    11
# 10         15    11
# #  with 15 more rows
…
