Stacking
…
# Display results in a tidy tibble
# Each model would be ran using the cross-fold validation. Average performance statstics reported back.
# Note that the cross-fold validation models are not kept. Only using cross-fold validation to calculate performance statistics for us to choose which model parameters to use.
# no. of models x no. of metrics
xgb_model_results %>%
  collect_metrics()

# # A tibble: 75 x 8
#    trees tree_depth .metric    .estimator  mean     n  std_err .config          
#    <int>      <int> <chr>      <chr>      <dbl> <int>    <dbl> <fct>            
#  1     1          1 accuracy   binary     0.497    11 0.0175   Preprocessor1_Mo~
#  2     1          1 mn_log_lo~ binary     0.693    11 0.000118 Preprocessor1_Mo~
#  3     1          1 roc_auc    binary     0.501    11 0.00869  Preprocessor1_Mo~
#  4   500          1 accuracy   binary     0.496    11 0.0246   Preprocessor1_Mo~
#  5   500          1 mn_log_lo~ binary     0.697    11 0.00539  Preprocessor1_Mo~
#  6   500          1 roc_auc    binary     0.540    11 0.0160   Preprocessor1_Mo~
#  7  1000          1 accuracy   binary     0.495    11 0.0248   Preprocessor1_Mo~
#  8  1000          1 mn_log_lo~ binary     0.699    11 0.00577  Preprocessor1_Mo~
#  9  1000          1 roc_auc    binary     0.538    11 0.0159   Preprocessor1_Mo~
# 10  1500          1 accuracy   binary     0.495    11 0.0248   Preprocessor1_Mo~
# # ... with 65 more rows
…
# Results of the model. These results will be added to the stack.
svm_results <- svm_wflow %>%
  tune_grid(
    resamples=resamples_cv,
    grid=svm_grid,
    control=ctrl_grid
  )

svm_results %>%
  collect_metrics()

# # A tibble: 50 x 8
#         cost   rbf_sigma .metric .estimator  mean     n std_err .config         
#        <dbl>       <dbl> <chr>   <chr>      <dbl> <int>   <dbl> <fct>           
#  1  0.000977    1.00e-10 accura~ binary     0.501    11  0.0282 Preprocessor1_M~
#  2  0.000977    1.00e-10 roc_auc binary     0.535    11  0.0233 Preprocessor1_M~
#  3  0.0131      1.00e-10 accura~ binary     0.501    11  0.0282 Preprocessor1_M~
#  4  0.0131      1.00e-10 roc_auc binary     0.535    11  0.0231 Preprocessor1_M~
#  5  0.177       1.00e-10 accura~ binary     0.501    11  0.0282 Preprocessor1_M~
#  6  0.177       1.00e-10 roc_auc binary     0.535    11  0.0231 Preprocessor1_M~
#  7  2.38        1.00e-10 accura~ binary     0.501    11  0.0282 Preprocessor1_M~
#  8  2.38        1.00e-10 roc_auc binary     0.516    11  0.0251 Preprocessor1_M~
#  9 32           1.00e-10 accura~ binary     0.501    11  0.0282 Preprocessor1_M~
# 10 32           1.00e-10 roc_auc binary     0.542    11  0.0219 Preprocessor1_M~
# # ... with 40 more rows
…
# Results of the model
rf_ranger_results <- rf_ranger_wflow %>%
  tune_grid(
    resamples=resamples_cv,
    grid=rf_ranger_grid,
    control=ctrl_grid
  )

rf_ranger_results %>%
  collect_metrics()

# # A tibble: 50 x 8
#    trees min_n .metric  .estimator  mean     n std_err .config              
#    <int> <int> <chr>    <chr>      <dbl> <int>   <dbl> <fct>                
#  1     1     2 accuracy binary     0.503    11 0.0238  Preprocessor1_Model01
#  2     1     2 roc_auc  binary     0.515    11 0.0216  Preprocessor1_Model01
#  3   500     2 accuracy binary     0.510    11 0.0163  Preprocessor1_Model02
#  4   500     2 roc_auc  binary     0.575    11 0.0116  Preprocessor1_Model02
#  5  1000     2 accuracy binary     0.532    11 0.0208  Preprocessor1_Model03
#  6  1000     2 roc_auc  binary     0.578    11 0.0107  Preprocessor1_Model03
#  7  1500     2 accuracy binary     0.519    11 0.0213  Preprocessor1_Model04
#  8  1500     2 roc_auc  binary     0.581    11 0.0100  Preprocessor1_Model04
#  9  2000     2 accuracy binary     0.524    11 0.0207  Preprocessor1_Model05
# 10  2000     2 roc_auc  binary     0.580    11 0.00988 Preprocessor1_Model05
# # ... with 40 more rows
…
# Results of the model
rf_randomForest_results <- rf_randomForest_wflow %>%
  tune_grid(
    resamples=resamples_cv,
    grid=rf_randomForest_grid,
    control = ctrl_grid
  )

rf_randomForest_results %>%
  collect_metrics()

# # A tibble: 50 x 8
#    trees min_n .metric  .estimator  mean     n std_err .config              
#    <int> <int> <chr>    <chr>      <dbl> <int>   <dbl> <fct>                
#  1     1     2 accuracy binary     0.517    11 0.0123  Preprocessor1_Model01
#  2     1     2 roc_auc  binary     0.536    11 0.0134  Preprocessor1_Model01
#  3   500     2 accuracy binary     0.515    11 0.0185  Preprocessor1_Model02
#  4   500     2 roc_auc  binary     0.571    11 0.00961 Preprocessor1_Model02
#  5  1000     2 accuracy binary     0.507    11 0.0223  Preprocessor1_Model03
#  6  1000     2 roc_auc  binary     0.572    11 0.00924 Preprocessor1_Model03
#  7  1500     2 accuracy binary     0.506    11 0.0190  Preprocessor1_Model04
#  8  1500     2 roc_auc  binary     0.576    11 0.0102  Preprocessor1_Model04
#  9  2000     2 accuracy binary     0.514    11 0.0230  Preprocessor1_Model05
# 10  2000     2 roc_auc  binary     0.578    11 0.0102  Preprocessor1_Model05
# # ... with 40 more rows
…
# Perform tuning and cross-validation on training set
nnet_results <- nnet_wflow %>%
  tune_grid(
    resamples = resamples_cv, 
    grid = nnet_grid,
    metrics = metric_set(accuracy, roc_auc, mn_log_loss),
    control = ctrl_grid
  )

nnet_results %>% collect_metrics

# # A tibble: 75 x 8
#        penalty epochs .metric    .estimator  mean     n std_err .config         
#          <dbl>  <int> <chr>      <chr>      <dbl> <int>   <dbl> <fct>           
#  1    1.00e-10     10 accuracy   binary     0.508    11 2.80e-2 Preprocessor1_M~
#  2    1.00e-10     10 mn_log_lo~ binary     0.693    11 1.02e-3 Preprocessor1_M~
#  3    1.00e-10     10 roc_auc    binary     0.507    11 4.98e-3 Preprocessor1_M~
#  4    3.16e- 8     10 accuracy   binary     0.501    11 2.82e-2 Preprocessor1_M~
#  5    3.16e- 8     10 mn_log_lo~ binary     0.693    11 9.71e-4 Preprocessor1_M~
#  6    3.16e- 8     10 roc_auc    binary     0.5      11 0.      Preprocessor1_M~
#  7    1.00e- 5     10 accuracy   binary     0.508    11 2.80e-2 Preprocessor1_M~
#  8    1.00e- 5     10 mn_log_lo~ binary     0.694    11 1.05e-3 Preprocessor1_M~
#  9    1.00e- 5     10 roc_auc    binary     0.497    11 2.57e-3 Preprocessor1_M~
# 10    3.16e- 3     10 accuracy   binary     0.508    11 2.80e-2 Preprocessor1_M~
# # ... with 65 more rows
…
as_tibble(stacked_model)

# # A tibble: 891 x 241
#    future_return_s~ .pred_0_xgb_mod~ .pred_0_xgb_mod~ .pred_0_xgb_mod~
#    <fct>                       <dbl>            <dbl>            <dbl>
#  1 0                           0.501            0.502            0.502
#  2 1                           0.501            0.502            0.502
#  3 1                           0.501            0.498            0.497
#  4 1                           0.501            0.498            0.497
#  5 0                           0.499            0.503            0.503
#  6 0                           0.499            0.503            0.503
#  7 1                           0.499            0.496            0.496
#  8 0                           0.501            0.502            0.502
#  9 1                           0.501            0.502            0.502
# 10 0                           0.499            0.503            0.503
# # ... with 881 more rows, and 237 more variables:
# #   .pred_0_xgb_model_results_1_16 <dbl>, .pred_0_xgb_model_results_1_21 <dbl>,
# #   .pred_0_xgb_model_results_1_02 <dbl>, .pred_0_xgb_model_results_1_07 <dbl>,
# #   .pred_0_xgb_model_results_1_12 <dbl>, .pred_0_xgb_model_results_1_17 <dbl>,
# #   .pred_0_xgb_model_results_1_22 <dbl>, .pred_0_xgb_model_results_1_03 <dbl>,
# #   .pred_0_xgb_model_results_1_08 <dbl>, .pred_0_xgb_model_results_1_09 <dbl>,
# #   .pred_0_xgb_model_results_1_05 <dbl>, .pred_0_xgb_model_results_1_10 <dbl>,
# #   .pred_0_xgb_model_results_1_15 <dbl>, .pred_0_xgb_model_results_1_20 <dbl>,
# #   .pred_0_xgb_model_results_1_25 <dbl>, .pred_1_xgb_model_results_1_01 <dbl>,
…
